[
  {
    "count": "1",
    "caption": "Here we can see a person wearing ski boards on his legs and skating in the snow and he is also wearing gloves, helmet, goggles and we can see a flag behind him and trees present",
    "id": "000000173830"
  },
  {
    "count": "2",
    "caption": "In the image we can see there is a person who is standing and holding baseball bat in his hand and in front there are people who are standing, there is a ground and spectators are watching the people.",
    "id": "000000398028"
  },
  {
    "count": "3",
    "caption": "In the picture we can see a bun with pink color food item.",
    "id": "000000131379"
  },
  {
    "count": "4",
    "caption": "In the center of the image there are two elephants. At the bottom there is grass. In the background we can see hills and sky.",
    "id": "000000108864"
  },
  {
    "count": "5",
    "caption": "In this image I can see a oven. In side the over there is a bowl covered with the aluminium foil and it is in the tray. And also I can see a light.",
    "id": "000000344795"
  },
  {
    "count": "6",
    "caption": "In this image I can see there people are sitting on the elephant. Among them two people with blue color dress and one with white. In the back I can see another elephant and the few people are under the shed. In the back there are many tees and the sky.",
    "id": "000000183437"
  },
  {
    "count": "7",
    "caption": "In this image we can see an elephant in the water. Here we can see stone in the water. This is a sea.",
    "id": "000000556765"
  },
  {
    "count": "8",
    "caption": "In the image we can see there is a person who is sitting and in front on plate there is a food item.",
    "id": "000000212166"
  },
  {
    "count": "9",
    "caption": "In this picture we can see a shower room, in the middle there is a wash basin, on the top of washbasin we can see a mirror, on the right side image there is a towel, on the left side of image we can see another mirror, we can see a glass here and a mat on the bottom.",
    "id": "000000267670"
  },
  {
    "count": "10",
    "caption": "In the image there is a baby sat on cloth holding an apple, in the background there is garden,dry leaves and twigs all over, This seems to be picnic.",
    "id": "000000188592"
  },
  {
    "count": "11",
    "caption": "At the top there is a sky. Here near to the wall we can see trees. This is house with door and a window. Near to the house we can see a blue cover sheet. This is a tap with water pipe in green colour. Here we can see an animal gazing.",
    "id": "000000226883"
  },
  {
    "count": "12",
    "caption": "Here we can see a bunch of oranges placed on a table with leaves on it and behind them we can see a person who has his hands on a machine, that is a juice machine, he is wearing a cap and at the top we can see flowers present and he is standing under a shed",
    "id": "000000366711"
  },
  {
    "count": "13",
    "caption": "On the table there is a cat,keyboard,monitor,papers,books. In the background there is a wall and window. Through window we can see grass.",
    "id": "000000316015"
  },
  {
    "count": "14",
    "caption": "This picture describe about the inside view of the toilet in which brown color Labrador dog is inside the toilet. In front we a can see toilet seat, wash basin stand and white cladding tile on the wall. In the bottom flooring we can see flooring tile and a door mat.",
    "id": "000000061471"
  },
  {
    "count": "15",
    "caption": "This picture is clicked in a garden. There is a girl walking. She has tattoos on her cheeks. There is grass on the ground. To the top left there are plants in flower pots. Behind her there is wall. ",
    "id": "000000261061"
  },
  {
    "count": "16",
    "caption": "Here we can see a kitchen platform and these are the cupboards. There is a oven and this is stove. Here we can see a chimney, wash basin and a tap. There are some bottles, bowls, and vessels. And this is window. This is floor and there is a wall. These are the lights and this is roof.",
    "id": "000000262682"
  },
  {
    "count": "17",
    "caption": "In the image we can see that there are many boats in the water and there are many people around. This is a water, this is a sand and cloudy sky.",
    "id": "000000222559"
  },
  {
    "count": "18",
    "caption": "In the picture we can see a building wall and some cycles are kept near it, and we can also see a board with arrow.",
    "id": "000000185157"
  },
  {
    "count": "19",
    "caption": "In this image i can see number of people standing on the platform of the railway station, I can see most of them are holding or wearing bags. I can see a train. In the background i can see a board, the roof and few metal poles.",
    "id": "000000082812"
  },
  {
    "count": "20",
    "caption": "In this picture there is a kid sitting in the chair and a saloon. There are two hands holding a scissor. In the background there are some people standing. There are children, girls and men and women here. There are some toys in the left side. In the background, there is poster, door and some trees here.",
    "id": "000000297562"
  },
  {
    "count": "21",
    "caption": "In this image we can see grass in front, on left side of image we can see a bench and in the background there are some trees some buildings, we can see sky and clouds on the top of the image.",
    "id": "000000168619"
  },
  {
    "count": "22",
    "caption": "In the image in the center we can see few colorful kites. On the left there is a chair. In the bottom we can see few barrels,bench and grass. In the background there is a sky,clouds,trees,vehicle,tower and few persons were standing.",
    "id": "000000527528"
  },
  {
    "count": "23",
    "caption": "In this picture we can see a pole in front, in the bottom there are some leaves, in the background we can see a white color and black color cars, on the right side of the image we can see a tree, in the background there is a building and a hill.",
    "id": "000000458702"
  },
  {
    "count": "24",
    "caption": "In this picture we can see a man wore spectacle, shoes skating with the skate board on ground and beside to him we can see a person holding bicycle with his hand, slide, fence and in the background we can see trees, sky with clouds.",
    "id": "000000448365"
  },
  {
    "count": "25",
    "caption": "There are three types of food in the box.",
    "id": "000000386134"
  },
  {
    "count": "26",
    "caption": "In this picture there are two girls, playing with a goats here. One is in black color and other is in white color with horns. In the background there is a fence. There are some trees, building and a sky here.",
    "id": "000000008690"
  },
  {
    "count": "27",
    "caption": "In this image i can see group of teddy bears which are wrapped by a blanket and there are pillows under it.",
    "id": "000000113403"
  },
  {
    "count": "28",
    "caption": "In the foreground of the picture there is a table, on the table there is a laptop, mouse, keyboard, glass and papers. On the top left there is desk, chair. On the desk there are pens, books and other objects. In the center of the background there is a window blind. On the top right there is a closet.",
    "id": "000000372466"
  },
  {
    "count": "29",
    "caption": "In this picture we can see three horses running on ground with men sitting on it and aside to this horse's we have fence, flowers, scoreboard, rack with the pole and in the background we can see trees, sky.",
    "id": "000000481480"
  },
  {
    "count": "30",
    "caption": "In this image i can see a person wearing white shirt, blue tie, blue blazer, skirt and black shoes is standing and holding a black colored bag in his hand. In the background i can see the white colored wall.",
    "id": "000000042102"
  },
  {
    "count": "31",
    "caption": "In this image we can see a man wearing a swimsuit, and sitting on the skateboard. Here is the water, and at above here is the sky.",
    "id": "000000199442"
  },
  {
    "count": "32",
    "caption": "In the picture there are many people sitting and some people are standing with the snow in front of them,they are playing a game there are many banners with some text on it there are many poles on the poles there are cables there are many trees there is snow round them.",
    "id": "000000364884"
  },
  {
    "count": "33",
    "caption": "This picture shows a man seated and other two are standing on the side they wore black caps on their hands and a man wore a glove to his hand and a other man wore a glove to his hand and we see a chair",
    "id": "000000109118"
  },
  {
    "count": "34",
    "caption": "In this image there is man who is wearing a pant and he is standing on the skateboard near to him there is a table and bench. On the background we can see a building and having many windows and door. On the we can see a sky. Behind the building there is tree and a street light.",
    "id": "000000336209"
  },
  {
    "count": "35",
    "caption": "In this picture there is a stand on a ground. On the backside there is a person. He is riding on a horse. He is wearing a cap. He is in between the fence. There is a flags on a wall. On the left side there is a score board on a table and flower plants. We can see in the background sky. trees.",
    "id": "000000242678"
  },
  {
    "count": "36",
    "caption": "In this image we can see zebra and giraffe standing in grass, And there are so many plants, lake with water, mountain with trees.",
    "id": "000000159977"
  },
  {
    "count": "37",
    "caption": "This is a black and white picture. There are two persons sitting on benches. Behind the people there are grass and trees. In front of the people there is a path.",
    "id": "000000089697"
  },
  {
    "count": "38",
    "caption": "In this image we can see a man standing and holding a remote controller in his hands. On the right side of the image we can see a television. In the background we can see a person standing, a monitor on table, curtains and glass windows through which we can see building.",
    "id": "000000491366"
  },
  {
    "count": "39",
    "caption": "In this image, in the middle there is a white color object, in the background there are some green color trees, there is a brown color wall.",
    "id": "000000304817"
  },
  {
    "count": "40",
    "caption": "In this picture there is colorful umbrella towards the left, towards the right there is a tree. In the bottom there is a person. In the background there is a sky.",
    "id": "000000292155"
  },
  {
    "count": "41",
    "caption": "In this image i can see a two persons. On the left side the person is holding a camera. He is wearing black jacket and a jeans. On the right side the person is wearing a helmet and a skating board on the floor. I can see a bag and a grass.",
    "id": "000000568981"
  },
  {
    "count": "42",
    "caption": "There is a person in brown color t-shirt, wearing a helmet and sitting on brown color horse which is running on a path. In the background, there flowers, grass on the ground, trees, buildings, poles, plants and sky.",
    "id": "000000574297"
  },
  {
    "count": "43",
    "caption": "This is a picture of an airplane in the runway ,and the person standing beside the airplane.",
    "id": "000000110721"
  },
  {
    "count": "44",
    "caption": "This is an inside view. Here I can see a table on which a monitor, keyboard, mouse, mouse pad, speakers, cables and some other objects are placed. Beside the monitor there is a glass bowl which consists of water and a fish in it. On the left side there is a door. In the background there is a wall.",
    "id": "000000186282"
  },
  {
    "count": "45",
    "caption": "In this image we can see both of the children are standing, and smiling and cooking, in front here is the stove and pan on it, here is the spoon, at side here is the vessel, and at back here is the table, here is the wall, and here is the glass door.",
    "id": "000000512929"
  },
  {
    "count": "46",
    "caption": "As we can see in the image there is a man wearing spectacles and in front of him there is a yellow color fruit. The image is blurred.",
    "id": "000000079014"
  },
  {
    "count": "47",
    "caption": "There are buses, cars, running on the road. There is a clock tower. In the background there buildings with windows. Also there are some sign boards, street poles.",
    "id": "000000098392"
  },
  {
    "count": "48",
    "caption": "Here these are breads and knife in the white color flower plate and the plate is on the table.",
    "id": "000000015079"
  },
  {
    "count": "49",
    "caption": "This picture shows a monitor and keyboard and a couple of mouses and we see two laptops and a photo frame and speakers and a iPod and a camera on the table and we see blinds to the window and a white wall",
    "id": "000000363840"
  },
  {
    "count": "50",
    "caption": "In this picture there is a refrigerator which is white in color. In the right side there are some papers stuck to the wall. In the left side there is a shelf in which some bottles were placed. In the background there is a wall here.",
    "id": "000000506310"
  },
  {
    "count": "51",
    "caption": "In this image there are group of persons who are sitting around the table in a restaurant and having some food and there are water glasses on the table,at the background of the image there is a door,mirror and some paintings attached to the wall.",
    "id": "000000436617"
  },
  {
    "count": "52",
    "caption": "In this picture on the sea shore there are two horses. To the front there is a man on the horse with black jacket and blue helmet on his head. In front of the horse there is another horse with a man on it with blue jacket and white helmet. In front of them there are rocks and waves coming from the sea.",
    "id": "000000214753"
  },
  {
    "count": "53",
    "caption": "In this image I can see a table. There is a plate and a bowl on that. I can see a chair to the side. In the back there is a counter top and a sink. Down there are shelves. There are many kitchen objects on that. To the side of that there is a window blind and there are many knives attached. To the wall there is a clock.",
    "id": "000000156278"
  },
  {
    "count": "54",
    "caption": "As we can see in the image in the front there is a woman holding a glass. She is wearing a black color dress. Behind her there is a refrigerator, cupboards and on the left side there is a bottle and tissues.",
    "id": "000000022705"
  },
  {
    "count": "55",
    "caption": "In this Image I see 2 women who are holding a thing in their hands and I see this woman is smiling and I can also see that this woman is wearing a black top and this woman is wearing a grey top. In the background I see the white couch and a photo frame in which there is a white dog and the photo frame is on the wall.",
    "id": "000000371749"
  },
  {
    "count": "56",
    "caption": "On the left hand side, there are two persons in black color shirt and t-shirt respectively, standing and watching television, that is in front of them. In the background, there is glass window, curtain, some materials on the table, monitors and some items on the table",
    "id": "000000491366"
  },
  {
    "count": "57",
    "caption": "In the image we can see that, there are vehicles on road. There are light poles, trees and the sky is in pale blue color. This is a instruction pole.",
    "id": "000000269942"
  },
  {
    "count": "58",
    "caption": "in this image we can see group of people playing the game wearing a helmet black T shirt and grey pant beside the fence there are a group of people sitting and watching the game.",
    "id": "000000018491"
  },
  {
    "count": "59",
    "caption": "This image is consists of a hall, where there are wooden desks around the area of the image with lamps, and there is a main stage at the center of the image, and there are glass windows around the area of the image, there is a golden color container at the center of the image.",
    "id": "000000471991"
  },
  {
    "count": "60",
    "caption": "This image is clicked outside near the beach. There are many people in this image. To the left, the man is in the air, he is skating on a skating board. In the middle, the boy is sitting on a bicycle. There are many coconut trees in this image. To the top, there is a sun in the sky. The sky looks red in color. To the bottom right, there is a woman walking. At the bottom, there is sand.",
    "id": "000000439854"
  },
  {
    "count": "61",
    "caption": "Here we can see a woman sitting in the briefcase. And this is wall.",
    "id": "000000127660"
  },
  {
    "count": "62",
    "caption": "In the middle of the image there is a table on the table there are two plates. On the plate there is cake and fork and there is a bottle and cup.",
    "id": "000000496954"
  },
  {
    "count": "63",
    "caption": "In this picture we can see a girl standing near by sea. We can see a man and a woman walking into the sea. We can see persons riding in a boat and with a surfboard in a sea.",
    "id": "000000540932"
  },
  {
    "count": "64",
    "caption": "There is a man in white color shirt, wearing a black color tie, standing. In the background, there is a yellow wall near the white ceiling.",
    "id": "000000476415"
  },
  {
    "count": "65",
    "caption": "There is a plate which has some eatables on it and there are wine bottles and a glass of wine which are placed on the table and there are few persons in the right corner.",
    "id": "000000312192"
  },
  {
    "count": "66",
    "caption": "In this image I can see 3 electronic gadgets on the table, the gadget in the middle is a Sony branded and it contains the camera,a flash and the gadget on the left side is a Dell branded gadget which contains few buttons in the bottom and a power button on the top, the gadget in the right side is a blue color gadget which is a Motorola brand, it contains few buttons the bottom and few buttons on the side.",
    "id": "000000228981"
  },
  {
    "count": "67",
    "caption": "Here we can see trolleys full of luggage being transferred from one place to another and we can see some people pushing the trolleys we can see monitors present on the right side",
    "id": "000000500257"
  },
  {
    "count": "68",
    "caption": "In this image, in the middle there is a chair which is in black color, there are some people walking and there is a snow on the ground, there are some trees which are in black color, there are some homes.",
    "id": "000000222458"
  },
  {
    "count": "69",
    "caption": "At the bottom of the picture, we see the sand. In the middle, we see the beach beds or the chairs in blue and pink color. We see four people are swimming in the water. In the background, we see water and this water might be in the river.",
    "id": "000000029984"
  },
  {
    "count": "70",
    "caption": "In this picture to the front there is a surfboard with green, yellow, blue and orange colors on it. And the surfboard is on the sand. And in the background there is a beach. There are some people sitting on the seashore. And some are inside the sea. There is a hill in the background with many trees. On the top there is a sky.",
    "id": "000000204329"
  },
  {
    "count": "71",
    "caption": "In this image I see buildings and there are few boards on which there are few words written on it and I see few street lights, cars on the road and 2 persons over here. In the background I see the blue sky.",
    "id": "000000315187"
  },
  {
    "count": "72",
    "caption": "In the picture there is a man surfing on the tides on a sea,the surfing pad is in white color,the man is wearing black swim costume.",
    "id": "000000177357"
  },
  {
    "count": "73",
    "caption": "In the foreground a person is sitting on the fence and reading a book half visible. In the left middle a bag is there in which books are there. This image is taken during day time.",
    "id": "000000172617"
  },
  {
    "count": "74",
    "caption": "In the picture there is an animal standing on the grass,near to the animal there is a wooden pole.",
    "id": "000000278353"
  },
  {
    "count": "75",
    "caption": "In this picture there are beautifully designed wall clock fitted to the wall and there are few sculptures on the wall and its a multi colored wall clock with two hanging of minutes and seconds. There is a label on top of which 1106 is written.",
    "id": "000000161642"
  },
  {
    "count": "76",
    "caption": "In this Image I can see there are the persons walking on the road , beside him there is a dog with black color walking on the road and a person carrying a carry bags , right side there is a building and there are the some chairs kept on the road in front of a building there a tree visible on the right side and they are poles visible on the left side and left corner I can see there are the vehicles visible and middle I can see there are the persons walking on the road and there is a building visible on the middle corner.",
    "id": "000000338624"
  },
  {
    "count": "77",
    "caption": "In this picture we can see a baby standing near to the apple boxes and touching the apples, apples are green, and red in color.",
    "id": "000000359833"
  },
  {
    "count": "78",
    "caption": "In this image on a ground three people are there. A person wearing red t-shirt is holding a baseball bat. It is looking like they are playing baseball. Here a person is in crouch position. This person is walking , he is wearing a mask.",
    "id": "000000046252"
  },
  {
    "count": "79",
    "caption": "In this picture I can see a person standing and his wearing a blue Jersey and another person standing before him and this people are in a playground and in the backdrop there are stair with railing and in a backdrop there are there are some trees.",
    "id": "000000423104"
  },
  {
    "count": "80",
    "caption": "We can see different models of flower vases on the wall and we can see flowers in one vase.",
    "id": "000000097585"
  },
  {
    "count": "81",
    "caption": "In this picture we can see a man is seated in the snow, in front of him we can find a Snow board.",
    "id": "000000074860"
  },
  {
    "count": "82",
    "caption": "In this image we can see a park bench, plans and building with windows, pipe and door.",
    "id": "000000351589"
  },
  {
    "count": "83",
    "caption": "The picture consists of food items on a white color plate like object.",
    "id": "000000015278"
  },
  {
    "count": "84",
    "caption": "The picture is taken in a closed room where there is one countertop and a gas stove is present, on that gas stove one kettle is present which is in black colour and there is one window in the middle where some books and one statue and one flower vase are kept and on the wall there is one clock hanging and there is another room where one chandelier is hanging from the roof in the picture.",
    "id": "000000571893"
  },
  {
    "count": "85",
    "caption": "This is the wing of the flight. There are many people walking holding bags. There are traffic cones. there is a bus. In the background some equipment are there.",
    "id": "000000524850"
  },
  {
    "count": "86",
    "caption": "In this image i can see person holding a bat and a wearing a white helmet. He is wearing blue shirt and white pant. At the back side I can see three person sitting. There is a net. The person is holding a umbrella which is in green and white color. Back Side i can see vehicle.",
    "id": "000000357816"
  },
  {
    "count": "87",
    "caption": "In this image we can see a bus on the road. In the background we can see trees and blue sky.",
    "id": "000000311909"
  },
  {
    "count": "88",
    "caption": "The image shows that there is a few people walking with a luggage. Here we can see a person standing and he is a police volunteer. Here we can see a person who is on the left side. This is a roof with lightning arrangement.",
    "id": "000000520707"
  },
  {
    "count": "89",
    "caption": "I can see in this image a man and a woman are holding an umbrella in their hand and sitting beside a table. On the table we have few objects on it. In the background I can see few trees and a building. In the front I can see two persons and a glass.",
    "id": "000000151938"
  },
  {
    "count": "90",
    "caption": "Here we can see a bench and this is road. There are plants and this is grass. In the background there is a wall.",
    "id": "000000461573"
  },
  {
    "count": "91",
    "caption": "This is a picture of a city. In the foreground of the picture there is a clock tower. In the center there is a skyscraper. In the background sky is cloudy. On the left there is a rooftop.",
    "id": "000000173044"
  },
  {
    "count": "92",
    "caption": "This image consists of refrigerator. On that there are cans and boxes. There is light on the top. There is magnum sticker on refrigerator.",
    "id": "000000554838"
  },
  {
    "count": "93",
    "caption": "In this picture we can see a glass shelf on a wall and on the glass shelf we can see bottles. Here in a white wash basin we can see a cat standing and staring. This is a toilet paper over a stand. This is a floor.",
    "id": "000000227044"
  },
  {
    "count": "94",
    "caption": "In this image, in the middle there is a yellow color object, in the background there is a building and there is a sky which is in white color.",
    "id": "000000266082"
  },
  {
    "count": "95",
    "caption": "In this image we can see an elephant walking into the trees. Here we can see a car on the road. In the background we can see fence, grass, trees and hills.",
    "id": "000000166664"
  },
  {
    "count": "96",
    "caption": "In this picture there are many people standing and holding bags across their shoulders and flying kites in the sky. There are some clouds here.",
    "id": "000000163117"
  },
  {
    "count": "97",
    "caption": "In a washroom there is a white toilet seat and a white flush tank. At the left there is a silver hand shower. At the right there is toilet paper stand and a hand wash stand attached on the wall. Behind them that there is a wall which is orange in color. In the front there is a white door mat. At the left there is a glass door.",
    "id": "000000234413"
  },
  {
    "count": "98",
    "caption": "As we can see in the image there is a sky, Aeroplane flying in air, buildings and in ground there are three Aeroplanes, grass and on right side there are two buildings and in front of buildings there are boxes, cars and vans.",
    "id": "000000449996"
  },
  {
    "count": "99",
    "caption": "This picture is clicked in the forest where there are 2 giraffes standing in the center. In the front there are stones and grass on the floor. At the right side there is a plant and wall. In the background there are trees, metal fence, and the grass and wall. At the right side there are stones, grass on the ground. On the top there is a sky.",
    "id": "000000033707"
  },
  {
    "count": "100",
    "caption": "In this image a bed is visible on which two dogs and cat are sleeping, cushions and blankets are visible and book visible. Background walls are white in color and a curtain visible and a table visible. This image is taken inside a room.",
    "id": "000000071226"
  },
  {
    "count": "101",
    "caption": "There are two hot dogs placed on the plate. These hot dogs are made of bread,sauce,cheese and few other items. This is a plate which is white in color. I can see a glass jar and tissue paper placed on the table.",
    "id": "000000283113"
  },
  {
    "count": "102",
    "caption": "This picture is taken at the seashore, there are some people in the water, there is a yellow color object and there is a white color object, there is water in the white color.",
    "id": "000000274066"
  },
  {
    "count": "103",
    "caption": "In this image we can see oranges and strawberries has cut and kept in the bowl.",
    "id": "000000136772"
  },
  {
    "count": "104",
    "caption": "In this image I see the inside view of a vehicle and there are seats, rods and few people who are sitting on seats and I see the lights on the top. In the background I see many buses which are on the road and I see the sky.",
    "id": "000000484404"
  },
  {
    "count": "105",
    "caption": "This is a freshwater river with waves. In-front of this waves there are stones on sand. These two persons are sitting on horses and riding.",
    "id": "000000214753"
  },
  {
    "count": "106",
    "caption": "As we can see in the image there is a table. On table there are plates, fork, bottle, glass and box. On plate there is a pizza.",
    "id": "000000520871"
  },
  {
    "count": "107",
    "caption": "Here we can see chopped vegetables on the board. This is knife and there is a glass. This is cabbage. And here we can see a kitchen platform.",
    "id": "000000116206"
  },
  {
    "count": "108",
    "caption": "Here we can see two persons are skating on the snow. These are the skateboards. They wear a helmet and goggles. And there are trees.",
    "id": "000000393469"
  },
  {
    "count": "109",
    "caption": "The picture consists of a keyboard, a cat, laptop, cable wires, cloth, speaker, books and many other objects. Floor is covered with a mat.",
    "id": "000000416256"
  },
  {
    "count": "110",
    "caption": "In this image, group of people are there, few are standing, few are sat here. At the bottom, we can see a ground and grass. And right side, there is a box. Here we can see fencing ,boards, trees and pillar here.",
    "id": "000000018491"
  },
  {
    "count": "111",
    "caption": "In this image, man is holding bunches of bananas and he is smiling. The background, we can see some shed, pole, fencing, so many trees.",
    "id": "000000389812"
  },
  {
    "count": "112",
    "caption": "In this image I see the water, 2 statues, a bench, plants and flowers on the plants and I see the trees and the blue sky.",
    "id": "000000395575"
  },
  {
    "count": "113",
    "caption": "In this picture we can see a kitchen room, in front there is a counter top, a washbasin, some bottles, a plate, a book, a paper on the counter top, on the top there are some cupboards, on the left there is a fridge, behind the fridge we can see some covers, boxes, in the bottom there are some drawn, here there is a microwave oven, on the top we can see some bowls, a kettle, we can see some tiles here.",
    "id": "000000007574"
  },
  {
    "count": "114",
    "caption": "This image is clicked inside a room. In the middle, there is table on that there is pine apple, fruits, bowl and knives and there is flag, telephone, pillar and pipe. On the right there are glasses, table, pipe, clock and light. On the left there is table, poster, light and pipes.",
    "id": "000000078266"
  },
  {
    "count": "115",
    "caption": "This picture shows an inner view of a restroom we see a wash basin with tap and a mirror on the wall and we see a light on it and we see a toilet seat and a frame on the wall and we see a toilet paper and a napkin and we see draws and cupboards under the wash basin.",
    "id": "000000489091"
  },
  {
    "count": "116",
    "caption": "This is the picture taken in a room. The woman is in bending position and the woman is holding a umbrella and on the path there are stone, plants and some items. Beside the women there are wall and trees.",
    "id": "000000161032"
  },
  {
    "count": "117",
    "caption": "In this image there is a person sitting and holding the toilet seat with gloves. At the left side there is a wash basin and tap. At the top there is a bottle in the cupboard. At the bottom there is a cloth.",
    "id": "000000003156"
  },
  {
    "count": "118",
    "caption": "In this image i can see a horse in brown and white color standing in a snow, there is a wooden fencing, at the background i can see a dried trees and a sky in blue color.",
    "id": "000000481159"
  },
  {
    "count": "119",
    "caption": "Here a man is wearing glove to his hand and jumping. On the right a person is lying on the ground. On the left a person is standing. Behind them there is a grass.",
    "id": "000000091495"
  },
  {
    "count": "120",
    "caption": "I can see in this image a bridge on the water. On the left side of the image I can see a boat is floating on the water, a group of people on the roadside are standing together, a pole, street lights, trees and vehicles on the road and on the right side of the image I can see tower and sky.",
    "id": "000000047828"
  },
  {
    "count": "121",
    "caption": "There is a person in black color t-shirt on the surfboard which is on the tide of the sea. In the background, there is a boat and sky.",
    "id": "000000579635"
  },
  {
    "count": "122",
    "caption": "Here we can see a couple of giraffes and a bird present on the ground and around them we can see a rocks placed and we can see trees and plants present",
    "id": "000000285788"
  },
  {
    "count": "123",
    "caption": "In this image on the right, there is a man, he wears shirt, tie. He is smiling. On the left there is a woman she wears dress, her hair is short, she is smiling.",
    "id": "000000287527"
  },
  {
    "count": "124",
    "caption": "In the picture we can see a man on the skating board riding on the path, in the background we can see some cars on the road and lights.",
    "id": "000000157365"
  },
  {
    "count": "125",
    "caption": "in this picture we can see two men standing and holding remotes in their hands and in front of them we have a screen beside to the screen there are speakers and above the screen there is a flower pot with plant in it, candle stand and on left side books on floor, wires, wall.",
    "id": "000000257370"
  },
  {
    "count": "126",
    "caption": "In this image we can see a woman in the center. She is wearing a t shirt and she is holding a mobile phone in her.",
    "id": "000000433980"
  },
  {
    "count": "127",
    "caption": "In this picture we see a large ground full of green grass. Also there are herons present which are 3 in number. There is a plant available. It looks like park.",
    "id": "000000505565"
  },
  {
    "count": "128",
    "caption": "In the image there is a woman wearing a red color dress and holding a tennis racket on her hand and she is also having smile on her face, in background we can see green leaves at bottom there is a land.",
    "id": "000000386879"
  },
  {
    "count": "129",
    "caption": "In the center of the picture there is a desk on the desk there is a monitor, keyboard and a mouse. On the right there is a laptop, keyboard, speakers, pen and other objects. To the top right there is a window and a lamp. To the top left it is well. In the foreground there is a keyboard, cables and other objects",
    "id": "000000360951"
  },
  {
    "count": "130",
    "caption": "In this image we can see toys inside a car. In the background we can see people and tents.",
    "id": "000000560474"
  },
  {
    "count": "131",
    "caption": "In this image i can see a person holding a bat and wearing red helmet and a white dress. He standing in the ground. At the back side there are group of people sitting. There is a fencing which is in green color.",
    "id": "000000203931"
  },
  {
    "count": "132",
    "caption": "A giraffe is trying to sit by the side of a tree. There is another giraffe coming from the behind. There are trees around them.",
    "id": "000000333069"
  },
  {
    "count": "133",
    "caption": "This picture shows the kitchen where we see a stove a wash basin and we see the countertop of the kitchen and we see a table with a draw and few cupboards and a tiles floor",
    "id": "000000307145"
  },
  {
    "count": "134",
    "caption": "In this image I can see a person sitting on a horse and jumping through a wall. I can see a pole like an object beside it with some flowers on it. I can see trees behind. In the right bottom corner I can see some grass.",
    "id": "000000040036"
  },
  {
    "count": "135",
    "caption": "In this picture there are two people those who are sitting at the around a dining table, and there is a pizza on a table, the person who is sitting at the right side of the image, he is taking the photo, there are other tables and chairs behind them, there are doors and windows at the left side of the image, it seems to be a hotel.",
    "id": "000000062808"
  },
  {
    "count": "136",
    "caption": "There is a group of people. They are walking on the road. Some persons are wearing bags and holding bags. In the center there are three buildings with posters. There are two poles on the right and left side of the road.",
    "id": "000000163314"
  },
  {
    "count": "137",
    "caption": "In this picture there is a woman and a man standing in front of a desk on which a food items were placed. The woman is chopping with a knife. There are some wine bottles on the desk. We can observe some chargers, adapters and a glass on the desk. In the background there is a yellow color wall.",
    "id": "000000287347"
  },
  {
    "count": "138",
    "caption": "In this image in the center there is one clock, and on the background there is a wall.",
    "id": "000000167353"
  },
  {
    "count": "139",
    "caption": "Here we can see a wash basin. There are taps and these are the toothbrushes. And there are glasses. This is bag. In the background there is a wall and this is door.",
    "id": "000000241319"
  },
  {
    "count": "140",
    "caption": "There are two wooden bars. I can see knife,axes,hammer and few other tools placed on the wooden bar. This is the grass and plants. I can see wooden chairs. This is a cloth tied to the wooden trunk. I can see few objects placed here. This is the sign board attached to the pole. Here I can see a bicycle which is kept aside. This looks like a couch. At background I can see trees and building. There are few people sitting on the chairs at the right side of the image. This looks like a ladder.",
    "id": "000000153527"
  },
  {
    "count": "141",
    "caption": "In the image in the center we can see one person holding some object. In the background there is a sky and water.",
    "id": "000000378454"
  },
  {
    "count": "142",
    "caption": "In this image we can see a red color train on the railway track. Here we can see platform, trees, house and cloudy sky.",
    "id": "000000539445"
  },
  {
    "count": "143",
    "caption": "The image shows that there is a pizza which is kept on this plate.",
    "id": "000000357430"
  },
  {
    "count": "144",
    "caption": "In this image I see a plate on which there is food and I see a cup over here, I can also see a cloth, a bowl full of food and a fork over here and I see the glass.",
    "id": "000000304984"
  },
  {
    "count": "145",
    "caption": "In this image we can see a boat in which many people are sitting is floating on the water. In the background we can see a fence where cycles are parked, many buildings, trees, cars on road and sky with clouds.",
    "id": "000000378139"
  },
  {
    "count": "146",
    "caption": "In the picture there is a person on the top wearing skis and skiing, he is wearing an orange color dress. In the foreground of the picture there is snow. On the right there is a person skiing.",
    "id": "000000032735"
  },
  {
    "count": "147",
    "caption": "A woman in red color dress is cutting a cake with knife. The cake is on a stool and the stool is arranged on a heightened platform. She wears a black veil on her face and a pearl necklace around her neck.",
    "id": "000000158956"
  },
  {
    "count": "148",
    "caption": "In this image, in the left side there is a white color object, in the right side there is a person standing and he is holding a black color object, in the background there is a green color plant.",
    "id": "000000398438"
  },
  {
    "count": "149",
    "caption": "This bird is flying. It has wings. Sky is in blue color.",
    "id": "000000264335"
  },
  {
    "count": "150",
    "caption": "In this picture there is a man wearing a spectacles and a girl were lying on the bed, wearing a blanket. There is a pillow behind the girl. In the background there is a wall.",
    "id": "000000317999"
  },
  {
    "count": "151",
    "caption": "In the picture there is a stick inserted into the sand,a hand is holding the stick it looks like a glove, beside that another person is climbing up the mountain there are some equipment in his back he is wearing a hat and also black gloves behind the person there are some rocks and grass,in the background there are some other trees and sky.",
    "id": "000000308793"
  },
  {
    "count": "152",
    "caption": "This image is taken in outdoors. In the bottom of the image there is a ground with dry grass on it. In the right bottom of the image there is a plant. In the right side of the image a man is standing on the ground, he is holding a disk in his hand. In the middle of the image a man is throwing a disk, beside him a man is standing on the ground. In the background there are few trees, street light and a pole and there is a bag on the pole. At the top of the image there is a sky.",
    "id": "000000082986"
  },
  {
    "count": "153",
    "caption": "In this image I can see a laptop. To the right there is a screen on the table. To the side of the table there is a chair and books inside the rack. In the back there is a frame to the wall. And also I can see a cloth.",
    "id": "000000368684"
  },
  {
    "count": "154",
    "caption": "This is the airplane flying in the sky. These are the clouds. This airplane gas turbine engine,wings,tail,and wheels attached to it.",
    "id": "000000543528"
  },
  {
    "count": "155",
    "caption": "These persons are skiing on the snow and this person holding stick.",
    "id": "000000496409"
  },
  {
    "count": "156",
    "caption": "This picture shows a refrigerator we see few paper sticked on it and a photograph on it",
    "id": "000000170116"
  },
  {
    "count": "157",
    "caption": "There is a cat on the car and the car engine door is opened. In the background there is a road,vehicles,trees,buildings and grass.",
    "id": "000000466156"
  },
  {
    "count": "158",
    "caption": "In this picture we can see computer, bottle, toys, packet, keyboard, mouse pad and a mouse , papers, board , papers in a holder, speakers and file on the table.",
    "id": "000000149222"
  },
  {
    "count": "159",
    "caption": "The image is of a living room. In the foreground of the picture there is a bed, the bed is covered with a blanket and there are pillows on the bed. In the center of the picture there is a couch. In the center there is a desk, on the desk there is a lamp. In the center of the background there is a lamp and a curtain. On the top left there is a window and a bag. To the top right it is well.",
    "id": "000000051738"
  },
  {
    "count": "160",
    "caption": "In this picture we see a table on which clock of apple shape is present. In the back left there is a paper board containing penguin drawing and at the right there is a bowl in which flower pot is present.",
    "id": "000000407825"
  },
  {
    "count": "161",
    "caption": "In this image I can see a person holding the plate,wearing the maroon color dress and she is smiling. In front there is a table. On the table there is a box and cup. She is sitting to the side of the window. In the back there is are people standing and the lights can be seen.",
    "id": "000000038678"
  },
  {
    "count": "162",
    "caption": "In this image two people are holding joystick. Behind them on a sofa few people are sitting. Here one person is holding a phone. In the background there are books in a rack. On the top of the rock there is a statue. On the left there is a lamp and few stuffs on a table.",
    "id": "000000474021"
  },
  {
    "count": "163",
    "caption": "In the image we can see there are cars which are parked on the ground and the ground is covered with grass and there are lot of trees.",
    "id": "000000148719"
  },
  {
    "count": "164",
    "caption": "This is a black and white image. I can see a man standing and holding a placard. I can see a woman standing. This looks like a stroller. There are few people walking. These are the vehicles moving on the road. I think this is the dustbin. These are the trees and buildings. This looks like street light. This is the pathway.",
    "id": "000000278749"
  },
  {
    "count": "165",
    "caption": "In this image there is broccoli on a tray. This looking like a cloth material.",
    "id": "000000527695"
  },
  {
    "count": "166",
    "caption": "In the image in the center we can see one person skating. In the bottom we can see steps,glass and plants. In the background there is a sky.",
    "id": "000000132703"
  },
  {
    "count": "167",
    "caption": "A brown horse in running in a race. On it number 8 is written. Behind that there is cart in which a person is sitting wearing a yellow and green shirt. He is wearing white helmet. At the right there is grass and poles. At the back there are banners and trees behind it.",
    "id": "000000029187"
  },
  {
    "count": "168",
    "caption": "In this image I see a vehicle on the road and which is of red, black and yellow in color and there are few words and numbers on it and I can also see the wipers over here. In the background I see the trees, a pole, wires and the sky.",
    "id": "000000423519"
  },
  {
    "count": "169",
    "caption": "In this image there is a boy sitting on the sofa and he is smiling and he is holding the device. At the left there is an another sofa.",
    "id": "000000144984"
  },
  {
    "count": "170",
    "caption": "In this Image I see 3 animals which are on the grass and I see the white wall over here. In the background I see the trees and the sky.",
    "id": "000000165336"
  },
  {
    "count": "171",
    "caption": "In this image on the right side, a bench and I can also see it looks like a pole with some text written on it. In the background, I can see a tree in which I can see a board with some text written on it. I can also see a building.",
    "id": "000000203488"
  },
  {
    "count": "172",
    "caption": "In the image we can see a sofa on the sofa there is a cat. In front of the sofa there is a table, on the table we can see a cable wire. This is a carpet which is in white color on the carpet there is a dog which is in black color.",
    "id": "000000241326"
  },
  {
    "count": "173",
    "caption": "As we can see in the image there are trees, grass, chairs and few people here and there and in the front there is a white color ball. Few people are playing with this ball.",
    "id": "000000559842"
  },
  {
    "count": "174",
    "caption": "In the picture there is a train in the there are three persons two persons standing and one person is sitting there are many tracks near to the train there is a red light,there is bridge near to the train,there is also a small powerstation,there are many trees near to the train,there are many stones near to the tracks.",
    "id": "000000565778"
  },
  {
    "count": "175",
    "caption": "In the image we can see a cat sitting. Beside a cat there is a bowl.",
    "id": "000000407960"
  },
  {
    "count": "176",
    "caption": "In this image we can see a woman is standing and brushing the teeth. Here is the wall.",
    "id": "000000324614"
  },
  {
    "count": "177",
    "caption": "There is a rod which has a which has a green board attached to it, Which has something written on it and there are trees,car and a fence in the background.",
    "id": "000000189698"
  },
  {
    "count": "178",
    "caption": "In this picture we can see two owls standing on a branch of a tree.",
    "id": "000000149622"
  },
  {
    "count": "179",
    "caption": "In the image in the center we can see lights,tracks and one train,which is in blue color. On the right we can see few persons were walking. In the background there is a sky,hill,building,roof,trees,sign board etc.",
    "id": "000000076625"
  },
  {
    "count": "180",
    "caption": "The picture is taken outside on the road where one double decker bus is present on the road, beside the bus there is one big building and trees are present in the picture.",
    "id": "000000249219"
  },
  {
    "count": "181",
    "caption": "In this image I see vehicles which are on the path and I see a person over here and In the background I see the buildings, boards on which there are words written on it, trees and the sky.",
    "id": "000000220732"
  },
  {
    "count": "182",
    "caption": "In this image there are some group of persons sitting around the tables at the foreground of the image there are three persons who are sitting around the table and having some food and there are some food items,drinks,glasses,bowls,plates which are on the table.",
    "id": "000000242946"
  },
  {
    "count": "183",
    "caption": "This is inside the room. There is a bed. On the bed there is a pillow, bed sheet and book. On the side there is a bed lamp, and a cupboard with a electronic item. In the background there is a wall.",
    "id": "000000403353"
  },
  {
    "count": "184",
    "caption": "This is a window. On the window there are water droplets. In the background there is a building.",
    "id": "000000458790"
  },
  {
    "count": "185",
    "caption": "In this image we can see a person doing a skating on thin curved surface. Here we can see a tree on the top right side. In the background we can see trees, street light and a sky with clouds.",
    "id": "000000292415"
  },
  {
    "count": "186",
    "caption": "This picture is taken at the sea shore, there is water on the ground which is in blue color, there are some people riding the horses which are in black color, in the background there are some green color trees and in the top there is a sky which is full cloudy and in white color.",
    "id": "000000134856"
  },
  {
    "count": "187",
    "caption": "In this picture there is a giraffe. To the below right corner there is rock and beside it there is grass. In the background there is wall and to top of it there is wall with bamboo sticks.",
    "id": "000000301981"
  },
  {
    "count": "188",
    "caption": "In this image, we can see elephant is standing near the pole. In the middle, we can see fencing, few plants, trees and there is a house, two peoples are standing on the left side. In the middle of the image, we can see some bucket is hanging.",
    "id": "000000286503"
  },
  {
    "count": "189",
    "caption": "I can see in this image a cup, plate, a pen, a book and other objects. On the plate I can see food on it.",
    "id": "000000066706"
  },
  {
    "count": "190",
    "caption": "There are four yellow dolls which has a silver crown placed on their heads.",
    "id": "000000370900"
  },
  {
    "count": "191",
    "caption": "In this image there is a fire hydrant on pavement which is beside road. There is a pole connected with few wires. There is a fence beside to pavement. Background of image there are few houses and sky.",
    "id": "000000189226"
  },
  {
    "count": "192",
    "caption": "This image is consists of a road side view where there are trees at the background area of the image, there is a boundary at the left side of the image, and there is a bus, cars, and bikes at the left and right side of the image, there is a staircase at the right side of the image, there are group of people those who are standing at the left and right side of the image.",
    "id": "000000033854"
  },
  {
    "count": "193",
    "caption": "In the middle of the image there is a table on the table there is a book and mobile phone, electronic device and papers. Top of the image there is a wall and dustbin.",
    "id": "000000396729"
  },
  {
    "count": "194",
    "caption": "In this picture there is a cat staring at the television. Both are on the table. On the table there are electronic devices, cards etc. In the television there is a door and a pillar.",
    "id": "000000098839"
  },
  {
    "count": "195",
    "caption": "In this image, there is grass which is in green color, there are some green color plants, in the middle there is a pole which is in white color, on that pole there are some blue and white color boards, in the right side there is a car which is in white color, in the background there is a house and there is a sky which is in white color.",
    "id": "000000314914"
  },
  {
    "count": "196",
    "caption": "In this image there is a cat sitting on laptop having papers on it. Laptop is on table having few wires, papers. At the right side of image there is a window. At the left side there is a chair.",
    "id": "000000174231"
  },
  {
    "count": "197",
    "caption": "These are the traffic signals at here and these are the trees at here. It is a sign board at the top it's a cloudy sky.",
    "id": "000000269682"
  },
  {
    "count": "198",
    "caption": "Bottom left side of the image there is a table on the table there is a bowl. Bottom right side of the image a kid is holding a spoon and eating and he is sitting on a chair. Behind him there is a wall and there is a glass window. Through the glass window we can see some trees. Top left side of the image there is a couch. Behind the couch there is a red color curtain.",
    "id": "000000530061"
  },
  {
    "count": "199",
    "caption": "In this picture there is a tissue paper , vegetable on the table. There are fruits in bowl, basket, spoons, cupboard, refrigerator, table, flower pot, plant, chairs , table, desk, lights are visible.",
    "id": "000000540502"
  },
  {
    "count": "200",
    "caption": "IN this image there is a boy who is surfing at the center of the image and there are two people at the right and left side of the image, there is water all around the area of the image, it seems to be the beach.",
    "id": "000000224222"
  },
  {
    "count": "201",
    "caption": "In this picture we can see a television on the table. Television which showing a two persons. On the right we can see a glass which is written a mineral water.",
    "id": "000000187249"
  },
  {
    "count": "202",
    "caption": "This picture shows a laptop and a bag and a mouse and couple of books on the table and we see a man watering plants in the pot with a can and we see trees on the side",
    "id": "000000086582"
  },
  {
    "count": "203",
    "caption": "This is the picture taken in a room. A woman is sitting on chair and in front of the woman there is a wooden table and on the table there are keyboard, monitor, paper, pen, speaker, lamp, cable and some items. Behind the woman there are shelves with books, files and on the wall there are photo frames, telephone. Beside the woman there is other table and on the table there are some items.",
    "id": "000000386912"
  },
  {
    "count": "204",
    "caption": "I can see in this image a bag of a brown color. I can also see two man among them a woman and a man is standing on the ground. The woman is holding a bag in her hand. In the background I can see a building and a statue.",
    "id": "000000034139"
  },
  {
    "count": "205",
    "caption": "There are sandwiches, food items and other food items in a cup, on the the plate which is on the table which is covered with a cloth. Beside this, there is a fork. In the background, there are oranges in glass cup which is on the table and other item. The background is in white color.",
    "id": "000000304984"
  },
  {
    "count": "206",
    "caption": "This is a picture outside a city. In the foreground of the picture there are two cows, in the field. In the center of the picture there is a house. In the center of the picture there are trees. On the top it is smoky. In the foreground the field is covered with grass.",
    "id": "000000272212"
  },
  {
    "count": "207",
    "caption": "In this image I can see two people are holding the racket. These people are on the court and wearing blue color jersey. To the back of them there is a railing and few people are standing on the ground. In the back there is a building,trees and the fencing.",
    "id": "000000213830"
  },
  {
    "count": "208",
    "caption": "In the image there are bread toast on the left side, in the middle there is a jam bowl and butter bowl with fork and knife with a meat piece beside it, on right side there is a bowl full of banana sliced,apples and oranges, All are on a wooden plank.",
    "id": "000000322959"
  },
  {
    "count": "209",
    "caption": "Here we can see banana trees and these are the bananas. In the background there is a sky.",
    "id": "000000575500"
  },
  {
    "count": "210",
    "caption": "In this image i can see a baby wearing a black dress. At the back side i can see bed and pillows. The baby is sitting on the person.",
    "id": "000000422670"
  },
  {
    "count": "211",
    "caption": "In this image we can see a woman holding mosquito bat in her hand is having tattoo on her shoulder. In the background we can see a wall.",
    "id": "000000411774"
  },
  {
    "count": "212",
    "caption": "A train is passing by some trees. The train is in silver with blue and a orange line painted on it. It is electric locomotive. The railway gauge is narrow. There are plants and grass on either side of the track.",
    "id": "000000039670"
  },
  {
    "count": "213",
    "caption": "In this picture we can see couple vehicles on the road, and few people are walking, in the background we can find traffic lights, poles, hoardings and couple of trees.",
    "id": "000000228942"
  },
  {
    "count": "214",
    "caption": "This is a picture taken in the outdoors. It is sunny. There are group of elephants drinking water in the river. Behind the elephants there are trees.",
    "id": "000000391144"
  },
  {
    "count": "215",
    "caption": "In this picture we can able to see a person is holding a dog mouth and brush. This person is trying to clean the teeth of the dog. On this brush there is a toy.",
    "id": "000000309484"
  },
  {
    "count": "216",
    "caption": "There are two toilets, two dustbins , pipes and a flush is over there. In the background there is tiles.",
    "id": "000000206271"
  },
  {
    "count": "217",
    "caption": "In the center of the image there is a man sleeping on the bench. There is a blanket on him. There is a backpack. In the background there is a fence and trees.",
    "id": "000000030828"
  },
  {
    "count": "218",
    "caption": "In this picture there are four people sitting on the chair and they have a table in front of them with some food served the play and there are some beer glasses kept on the table there is a tissue box, there is a knife, fork and spoon and women sitting here at the center, she is wearing sunglasses, smiling and holding a beer glass with her right hand and in the background some chairs and empty tables and a group of people sitting and right there is a road and their vehicles parked.",
    "id": "000000470924"
  },
  {
    "count": "219",
    "caption": "Here a man is sitting on the chair and a person is standing,on his there is a measurement tape. On the table we can see laptop and clothes and a notebook. In the background there are few chairs,tables,tents,poles,clothes,trees and a dustbin.",
    "id": "000000397303"
  },
  {
    "count": "220",
    "caption": "In the image we can see there are many people sitting on chair. Some of them are holding mobile phone in their hands, laptop and gadget. On the chair there is a paper kept. This is a floor.",
    "id": "000000089648"
  },
  {
    "count": "221",
    "caption": "These two persons wore blue t-shirts and holding rackets and playing. Backside of this fence there are kids and a person is standing. Far there are trees and building with window.",
    "id": "000000213830"
  },
  {
    "count": "222",
    "caption": "This is the picture taken in the bath room, in the bathroom there is a toilet. Beside the toilet there is a wall to the wall there is a tissue and some soap. Behind the toilet there is a glass door.",
    "id": "000000234413"
  },
  {
    "count": "223",
    "caption": "Here we can see a man riding a bike. There is a helicopter. This is road. There are plants and this is wall. In the background we can see some trees and this is sky.",
    "id": "000000513580"
  },
  {
    "count": "224",
    "caption": "In this picture we can see a man wore blazer, tie, spectacle and he is standing and holding tie with one hand.",
    "id": "000000021604"
  },
  {
    "count": "225",
    "caption": "There are two planes flying in the sky and the sky is cloudy.",
    "id": "000000161044"
  },
  {
    "count": "226",
    "caption": "In this image on right is holding a pink umbrella , water bottle and cigarette. She is smiling. Behind her there are tents with banners. It is looking like shop. On the left two person are there. They are walking. In the background there are trees.",
    "id": "000000377239"
  },
  {
    "count": "227",
    "caption": "In this image there is a kid wearing blue color dress holding a umbrella which is of pink color which is on the floor and at the background of the image there is a plant,trees,car and buildings.",
    "id": "000000198489"
  },
  {
    "count": "228",
    "caption": "In this picture we can see scissors in the front , there are some papers in the background , here we can see a plastic thing, these are present on the table.",
    "id": "000000368982"
  },
  {
    "count": "229",
    "caption": "In this image, we can see kitchen platform, few items are placed on it, here cupboards, cover. On left side, we can see a refrigerator and microwave oven, few items are placed on it. On right side, there is a door, some stickers. At the bottom, we can see floor and background there is a white wall, pipes and white roof and light we can see.",
    "id": "000000453302"
  },
  {
    "count": "230",
    "caption": "In this image a man is on a crouched position on a skateboard. He put his hand on the road. He is wearing glove and helmet.",
    "id": "000000229553"
  },
  {
    "count": "231",
    "caption": "In the picture we can see a train engine, near to that we can see a woman standing with shoes, bag, cap and white T-shirt, the engine is placed under the shed and near to it there is stand and the train.",
    "id": "000000186624"
  },
  {
    "count": "232",
    "caption": "This image is clicked inside a room. In the middle, there is a bed on that there are many pillows. On the right there is tv, table and wall. In the background there is table, chair, stool, window, glass, curtain, frame and wall.",
    "id": "000000464358"
  },
  {
    "count": "233",
    "caption": "This is a washroom. On the right there is a commode. This is a window and this is the floor.",
    "id": "000000309495"
  },
  {
    "count": "234",
    "caption": "In this there are two beds. On beds we can see pillows,bed sheets. In the background there are frames on the wall,window,door,light and a cupboard table. Through window we can see sky and trees. This is the roof top.",
    "id": "000000007795"
  },
  {
    "count": "235",
    "caption": "In the image on the right we can see one table. In the background there is a wall,cupboard,light,sink,tap,pot,switch boards,tissue paper,vessel,micro oven,utensils,glasses and few other objects.",
    "id": "000000175364"
  },
  {
    "count": "236",
    "caption": "This picture is clicked on road. There are few birds standing on the road. The bird in the center is eating food. ",
    "id": "000000123585"
  },
  {
    "count": "237",
    "caption": "There are three persons riding a horse and they wear a helmet. There is a man holding a camera and taking a snap of them. This is sand and this is sea. In the background there is a sky.",
    "id": "000000360661"
  },
  {
    "count": "238",
    "caption": "In this image there is a person with red jacket, he is standing on the skateboard and he holding goggles. At the back there's a wall",
    "id": "000000199055"
  },
  {
    "count": "239",
    "caption": "In this image there is a water, under which we can see a bench, black pole and dustbin.",
    "id": "000000234757"
  },
  {
    "count": "240",
    "caption": "In this image, there is a platform which is in white color, there is a black color door, in the background there is a blue and yellow color train, there is a black color window of the train.",
    "id": "000000524742"
  },
  {
    "count": "241",
    "caption": "In this image I see Aeroplanes, few vehicles on the path, a building, sky and the trees in the background.",
    "id": "000000293324"
  },
  {
    "count": "242",
    "caption": "This is the picture taken in a room, there are a group of people sitting on chairs in front of these people there is a table and it is covered with a cloth and on the table there are tissues, cloth, plates, glasses, bowl, basket and some food items. Beside the people there is a wall with photo and on top of the wall there are trees with decorative lights.",
    "id": "000000085157"
  },
  {
    "count": "243",
    "caption": "In this picture there are four men standing and two men in the middle are holding an award. There is a poster to the left and a blue background.",
    "id": "000000453166"
  },
  {
    "count": "244",
    "caption": "As we can see in the image there is a brown color table. On table there is a keyboard, laptop, mouse and wires.",
    "id": "000000409630"
  },
  {
    "count": "245",
    "caption": "In this picture we can see a man surfing on a surfboard in a water. Here it seems like an animal in a water.",
    "id": "000000516318"
  },
  {
    "count": "246",
    "caption": "In this picture I can see the vehicle in the foreground. I can see the wooden object on the right side. I can see the hut. I can see clouds in the sky.",
    "id": "000000184338"
  },
  {
    "count": "247",
    "caption": "In this picture some flights and some vehicles are parked beside the flight and there is a building the whole picture look like in airport.",
    "id": "000000293324"
  },
  {
    "count": "248",
    "caption": "The picture consists of one bowl where soup is present in the bowl with vegetables in it.",
    "id": "000000123321"
  },
  {
    "count": "249",
    "caption": "There is a teddy bear on the floor and this is wall.",
    "id": "000000106330"
  }
]